{
  "hosting": {
    "target": "${FIREBASE_TARGET}",
    "public": "dist/f4ratk-web",
    "ignore": [
      "firebase.json",
      "**/.*",
      "**/node_modules/**"
    ],
    "rewrites": [
      {
        "source": "/api/:post*",
        "run": {
          "serviceId": "${FIREBASE_BACKEND_SERVICE_ID}",
          "region": "europe-north1"
        }
      },
      {
        "source": "**",
        "destination": "/index.html"
      }
    ]
  }
}
